[
    [
        0,
        1
    ],
    [
        0,
        2
    ],
    [
        0,
        3
    ],
    [
        0,
        4
    ],
    [
        0,
        5
    ],
    [
        0,
        6
    ],
    [
        0,
        7
    ],
    [
        0,
        8
    ],
    [
        0,
        9
    ],
    [
        0,
        10
    ],
    [
        0,
        11
    ],
    [
        0,
        12
    ],
    [
        0,
        1,
        2
    ],
    [
        0,
        1,
        3
    ],
    [
        0,
        1,
        5
    ],
    [
        0,
        1,
        12
    ],
    [
        0,
        2,
        3
    ],
    [
        0,
        2,
        4
    ],
    [
        0,
        2,
        6
    ],
    [
        0,
        2,
        9
    ],
    [
        0,
        3,
        9
    ],
    [
        0,
        3,
        10
    ],
    [
        0,
        3,
        11
    ],
    [
        0,
        4,
        7
    ],
    [
        0,
        4,
        9
    ],
    [
        0,
        4,
        10
    ],
    [
        0,
        4,
        12
    ],
    [
        0,
        5,
        6
    ],
    [
        0,
        5,
        9
    ],
    [
        0,
        5,
        12
    ],
    [
        0,
        6,
        7
    ],
    [
        0,
        9,
        12
    ]
]
